gigaHurt/components/datapath/datapath.vcd
$date
	Mon May 15 00:26:51 2023
$end
$version
	Icarus Verilog
$end
$timescale
	100ps
$end
$scope module datapath_tb $end
$scope module uut1 $end
$var wire 4 ! funct [3:0] $end
$var wire 3 " op [2:0] $end
$var wire 1 # pcsrc $end
$var wire 1 $ zero $end
$var wire 1 % regwrite $end
$var wire 1 & regdst $end
$var wire 1 ' memwrite $end
$var wire 1 ( memtoreg $end
$var wire 1 ) jump $end
$var wire 1 * branch $end
$var wire 1 + alusrc $end
$var wire 2 , aluop [1:0] $end
$var wire 4 - alucontrol [3:0] $end
$scope module ad $end
$var wire 4 . funct [3:0] $end
$var wire 2 / aluop [1:0] $end
$var reg 4 0 alucontrol [3:0] $end
$upscope $end
$scope module md $end
$var wire 3 1 op [2:0] $end
$var wire 1 % regwrite $end
$var wire 1 & regdst $end
$var wire 1 ' memwrite $end
$var wire 1 ( memtoreg $end
$var wire 1 ) jump $end
$var wire 1 + branch $end
$var wire 1 * alusrc $end
$var wire 2 2 aluop [1:0] $end
$var reg 9 3 controls [8:0] $end
$upscope $end
$upscope $end
$upscope $end
$scope module datapath_tb $end
$scope module uut2 $end
$var wire 4 4 alucontrol [3:0] $end
$var wire 1 + alusrc $end
$var wire 1 5 clk $end
$var wire 16 6 instr [15:0] $end
$var wire 1 ) jump $end
$var wire 1 ( memtoreg $end
$var wire 1 # pcsrc $end
$var wire 16 7 readdata [15:0] $end
$var wire 1 & regdst $end
$var wire 1 % regwrite $end
$var wire 1 8 reset $end
$var wire 1 9 zero $end
$var wire 3 : writereg [2:0] $end
$var wire 16 ; writedata [15:0] $end
$var wire 16 < srcb [15:0] $end
$var wire 16 = srca [15:0] $end
$var wire 16 > signimmsh [15:0] $end
$var wire 16 ? signimm [15:0] $end
$var wire 16 @ result [15:0] $end
$var wire 16 A pcplus2 [15:0] $end
$var wire 16 B pcnextbr [15:0] $end
$var wire 16 C pcnext [15:0] $end
$var wire 16 D pcbranch [15:0] $end
$var wire 16 E pc [15:0] $end
$var wire 16 F aluout [15:0] $end
$scope module alu $end
$var wire 4 G alucontrol [3:0] $end
$var wire 1 5 clk $end
$var wire 1 9 zero $end
$var wire 16 H sumSlt [15:0] $end
$var wire 16 I condinvb [15:0] $end
$var wire 16 J b [15:0] $end
$var wire 16 K a [15:0] $end
$var reg 32 L HiLo [31:0] $end
$var reg 16 M result [15:0] $end
$upscope $end
$scope module immsh $end
$var wire 16 N Y [15:0] $end
$var wire 16 O A [15:0] $end
$upscope $end
$scope module pcadd1 $end
$var wire 16 P B [15:0] $end
$var wire 16 Q Y [15:0] $end
$var wire 16 R A [15:0] $end
$upscope $end
$scope module pcadd2 $end
$var wire 16 S A [15:0] $end
$var wire 16 T B [15:0] $end
$var wire 16 U Y [15:0] $end
$upscope $end
$scope module pcbrmux $end
$var wire 16 V D0 [15:0] $end
$var wire 16 W D1 [15:0] $end
$var wire 1 # S $end
$var wire 16 X Y [15:0] $end
$upscope $end
$scope module pcmux $end
$var wire 16 Y D0 [15:0] $end
$var wire 16 Z D1 [15:0] $end
$var wire 1 ) S $end
$var wire 16 [ Y [15:0] $end
$upscope $end
$scope module pcreg $end
$var wire 1 5 CLOCK $end
$var wire 16 \ D [15:0] $end
$var wire 1 8 RESET $end
$var reg 16 ] Q [15:0] $end
$upscope $end
$scope module resmux $end
$var wire 16 ^ D0 [15:0] $end
$var wire 16 _ D1 [15:0] $end
$var wire 1 ( S $end
$var wire 16 ` Y [15:0] $end
$upscope $end
$scope module rf $end
$var wire 1 5 clk $end
$var wire 3 a ra1 [2:0] $end
$var wire 3 b ra2 [2:0] $end
$var wire 16 c rd1 [15:0] $end
$var wire 16 d rd2 [15:0] $end
$var wire 16 e wd3 [15:0] $end
$var wire 1 % we3 $end
$var wire 3 f wa3 [2:0] $end
$var integer 32 g i [31:0] $end
$upscope $end
$scope module se $end
$var wire 7 h A [6:0] $end
$var wire 16 i Y [15:0] $end
$upscope $end
$scope module srcbmux $end
$var wire 16 j D0 [15:0] $end
$var wire 16 k D1 [15:0] $end
$var wire 1 + S $end
$var wire 16 l Y [15:0] $end
$upscope $end
$scope module wrmux $end
$var wire 3 m D0 [2:0] $end
$var wire 3 n D1 [2:0] $end
$var wire 1 & S $end
$var wire 3 o Y [2:0] $end
$upscope $end
$upscope $end
$upscope $end
$enddefinitions $end
#0
$dumpvars
bx o
bx n
bx m
bx l
bx k
bx j
bx i
bx h
b1000 g
bx f
bx e
bx d
bx c
bx b
bx a
bx `
bx _
bx ^
b0 ]
bx \
bx [
b0xxxxxxxxxxxx0 Z
bx Y
bx X
bx W
b10 V
bx U
b0xxxxxxxxxxxxxx0 T
b10 S
b0 R
b10 Q
b10 P
bx O
b0xxxxxxxxxxxxxx0 N
bx M
b0 L
bx K
bx J
bx I
bx H
bx G
bx F
b0 E
bx D
bx C
bx B
b10 A
bx @
bx ?
b0xxxxxxxxxxxxxx0 >
bx =
bx <
bx ;
bx :
x9
18
bx 7
bx 6
05
bx 4
bx 3
bx 2
bx 1
bx 0
bx /
bx .
bx -
bx ,
x+
x*
x)
x(
x'
x&
x%
x$
x#
bx "
bx !
$end
#50
15
#100
b0 @
b0 `
b0 e
b0 H
b0 I
19
b0 F
b0 M
b0 ^
b11 -
b11 0
b11 4
b11 G
0(
0'
1*
0+
0&
1%
0)
b0 ,
b0 /
b0 2
b1001000 3
b10000 D
b10000 U
b10000 W
b10 C
b10 [
b10 \
b0 :
b0 f
b0 o
b0 <
b0 J
b0 l
b1110 >
b1110 N
b1110 T
b10 B
b10 X
b10 Y
b11 "
b11 1
b111 !
b111 .
b1000000001110 Z
b0 =
b0 K
b0 c
b10 a
b0 ;
b0 d
b0 j
b0 b
b0 m
b0 n
b111 ?
b111 O
b111 i
b111 k
b111 h
0#
05
b110100000000111 6
0$
08
#150
b100 C
b100 [
b100 \
b100 B
b100 X
b100 Y
b10010 D
b10010 U
b10010 W
b100 A
b100 Q
b100 S
b100 V
b10 E
b10 R
b10 ]
15
#200
b11000 D
b11000 U
b11000 W
b10100 >
b10100 N
b10100 T
b1010 !
b1010 .
b1100000010100 Z
b11 a
b1010 ?
b1010 O
b1010 i
b1010 k
b1010 h
05
b110110000001010 6
#250
b110 C
b110 [
b110 \
b110 B
b110 X
b110 Y
b11010 D
b11010 U
b11010 W
b110 A
b110 Q
b110 S
b110 V
b100 E
b100 R
b100 ]
15
#300
b1 @
b1 `
b1 e
b1111111111111111 I
09
b1 F
b1 M
b1 ^
b0 H
b100 -
b100 0
b100 4
b100 G
0*
1&
b10 ,
b10 /
b10 2
b11010 3
b1 :
b1 f
b1 o
b101000 D
b101000 U
b101000 W
b100010 >
b100010 N
b100010 T
b0 "
b0 1
b1 !
b1 .
b1101000100010 Z
b10 b
b10 m
b1 n
b10001 ?
b10001 O
b10001 i
b10001 k
b10001 h
05
b110100010001 6
#350
b1000 C
b1000 [
b1000 \
b1000 B
b1000 X
b1000 Y
b101010 D
b101010 U
b101010 W
b1000 A
b1000 Q
b1000 S
b1000 V
b110 E
b110 R
b110 ]
15
#400
1'
1*
0&
0%
b0 ,
b0 /
b0 2
b11000000 3
b11 -
b11 0
b11 4
b11 G
b1 H
b1 I
b1 @
b1 `
b1 e
09
b1 F
b1 M
b1 ^
b1 <
b1 J
b1 l
b1 :
b1 f
b1 o
b1000 D
b1000 U
b1000 W
b0 >
b0 N
b0 T
b10 "
b10 1
b0 !
b0 .
b100000000 Z
b0 a
b1 ;
b1 d
b1 j
b1 b
b1 m
b0 n
b0 ?
b0 O
b0 i
b0 k
b0 h
05
b100000010000000 6
#450
b1010 C
b1010 [
b1010 \
b1010 B
b1010 X
b1010 Y
b1010 D
b1010 U
b1010 W
b1010 A
b1010 Q
b1010 S
b1010 V
b1000 E
b1000 R
b1000 ]
15
